module gitlab.com/indikator/oooztk

go 1.18

require (
	github.com/go-sql-driver/mysql v1.7.0
	github.com/gofiber/fiber/v2 v2.41.0
	github.com/google/uuid v1.3.0
	github.com/joho/godotenv v1.4.0
)

require (
	github.com/andybalholm/brotli v1.0.4 // indirect
	github.com/klauspost/compress v1.15.9 // indirect
	github.com/mattn/go-colorable v0.1.13 // indirect
	github.com/mattn/go-isatty v0.0.17 // indirect
	github.com/mattn/go-runewidth v0.0.14 // indirect
	github.com/rivo/uniseg v0.2.0 // indirect
	github.com/valyala/bytebufferpool v1.0.0 // indirect
	github.com/valyala/fasthttp v1.43.0 // indirect
	github.com/valyala/tcplisten v1.0.0 // indirect
	golang.org/x/sys v0.0.0-20220811171246-fbc7d0a398ab // indirect
)
